{
  "services": [
    {
      "$class": "Business Service",
      "name": "GE.com",
      "description": "GE.com Business Service"
    },
    {
      "$class": "Business Service",
      "name": "Web Services",
      "description": "Web Services Services Business Application"
    },
    {
      "name": "GE Prod",
      "description": "GE Production Application Service"
    },
    {
      "name": "News",
      "description": "News MicroService"
    },
    {
      "name": "Investors",
      "description": "Investors MicroService"
    },
    {
      "name": "Careers",
      "description": "Careers MicroService"
    },
    {
      "name": "Businesses",
      "description": "Businesses MicroService"
    }
  ],
  "relationships": [
    {
      "parent": "GE.com",
      "child": "Web Services"
    },
    {
      "parent": "Web Services",
      "child": "GE Prod"
    },
    {
      "parent": "GE Prod",
      "child": "News"
    },
    {
      "parent": "GE Prod",
      "child": "Investors"
    },
    {
      "parent": "GE Prod",
      "child": "Careers"
    },
    {
      "parent": "GE Prod",
      "child": "Businesses"
    }
  ]
}
